…
### Import dataset

```r
dfOwls <- readr::read_csv("owls15.csv")
print(dfOwls)
```

```
## # A tibble: 134 x 5
##      `3`   `5` `1.6` `0.2` LongEaredOwl
##    <dbl> <dbl> <dbl> <dbl>        <chr>
##  1   3.2   4.7   1.6   0.2 LongEaredOwl
##  2   3.4   4.6   1.4   0.3 LongEaredOwl
##  3   3.6   5.0   1.4   0.2 LongEaredOwl
##  4   4.1   5.2   1.5   0.1 LongEaredOwl
##  5   3.0   4.9   1.4   0.2 LongEaredOwl
##  6   3.3   5.1   1.7   0.5 LongEaredOwl
##  7   3.4   4.8   1.6   0.2 LongEaredOwl
##  8   3.7   5.1   1.5   0.4 LongEaredOwl
##  9   3.1   4.9   1.5   0.1 LongEaredOwl
## 10   3.6   4.6   1.0   0.2 LongEaredOwl
## # ... with 124 more rows
```
…
